
Usage: ./main -f <graph file> -r [root] -n [num threads] -p [0-push/1-pull]
	-f <graph file.txt>
	-h [help]
	-r [root/source]: BFS 
	-p [algorithm direction] [0-1]-push/pull
	-n [num threads] default:max number of threads the system has
 -----------------------------------------------------
| File Name                                           | 
 -----------------------------------------------------
| /tmp/rmat_benchmark/RMAT20                          | 
 -----------------------------------------------------
| Number of Threads                                   | 
 -----------------------------------------------------
| 16                                                  | 
 -----------------------------------------------------
 -----------------------------------------------------
| New graph calculating size                          | 
 -----------------------------------------------------
 -----------------------------------------------------
| New Graph Created                                   | 
 -----------------------------------------------------
| 3.586284                                            | 
 -----------------------------------------------------
 -----------------------------------------------------
| Populate Graph with edges                           | 
 -----------------------------------------------------
 -----------------------------------------------------
| Time load edges to graph (Seconds)                  | 
 -----------------------------------------------------
| 3.588137                                            | 
 -----------------------------------------------------
 -----------------------------------------------------
| Radix Sort Graph                                    | 
 -----------------------------------------------------
 -----------------------------------------------------
| Time Sorting (Seconds)                              | 
 -----------------------------------------------------
| 0.420788                                            | 
 -----------------------------------------------------
 -----------------------------------------------------
| Map vertices to Edges                               | 
 -----------------------------------------------------
 -----------------------------------------------------
| Time Mapping (Seconds)                              | 
 -----------------------------------------------------
| 0.125476                                            | 
 -----------------------------------------------------
 *****************************************************
 -----------------------------------------------------
| BFS Algorithm (PUSH/PULL)                           | 
 -----------------------------------------------------
| PUSH                                                | 
 -----------------------------------------------------
| ROOT/SOURCE                                         | 
 -----------------------------------------------------
| 887243                                              | 
 -----------------------------------------------------
 -----------------------------------------------------
| Starting Breadth First Search (PUSH)                | 
 -----------------------------------------------------
| 887243                                              | 
 -----------------------------------------------------
| Iteration       | Nodes           | Time (Seconds)  | 
 -----------------------------------------------------
| TD 0            | 1               | 0.000000        | 
| TD 1            | 1               | 0.000105        | 
| TD 2            | 92              | 0.000062        | 
| TD 3            | 14752           | 0.001588        | 
| TD 4            | 169250          | 0.026168        | 
| TD 5            | 76158           | 0.026925        | 
| TD 6            | 4781            | 0.003967        | 
| TD 7            | 183             | 0.000247        | 
| TD 8            | 5               | 0.000037        | 
| TD 9            | 0               | 0.000028        | 
 -----------------------------------------------------
| No OverHead     | 265223          | 0.059127        | 
 -----------------------------------------------------
 -----------------------------------------------------
| total           | 265223          | 0.059176        | 
 -----------------------------------------------------
 -----------------------------------------------------
| Time BFS (Seconds)                                  | 
 -----------------------------------------------------
| 0.061687                                            | 
 -----------------------------------------------------
 -----------------------------------------------------
| Free Graph (Seconds)                                | 
 -----------------------------------------------------
| 0.001381                                            | 
 -----------------------------------------------------
