
Usage: ./main -f <graph file> -r [root] -n [num threads] -p [0-push/1-pull]
	-f <graph file.txt>
	-h [help]
	-r [root/source]: BFS 
	-p [algorithm direction] [0-1]-push/pull
	-n [num threads] default:max number of threads the system has
 -----------------------------------------------------
| File Name                                           | 
 -----------------------------------------------------
| /tmp/rmat_benchmark/RMAT22                          | 
 -----------------------------------------------------
| Number of Threads                                   | 
 -----------------------------------------------------
| 1                                                   | 
 -----------------------------------------------------
 -----------------------------------------------------
| New graph calculating size                          | 
 -----------------------------------------------------
 -----------------------------------------------------
| New Graph Created                                   | 
 -----------------------------------------------------
| 17.576513                                           | 
 -----------------------------------------------------
 -----------------------------------------------------
| Populate Graph with edges                           | 
 -----------------------------------------------------
 -----------------------------------------------------
| Time load edges to graph (Seconds)                  | 
 -----------------------------------------------------
| 17.440816                                           | 
 -----------------------------------------------------
 -----------------------------------------------------
| Radix Sort Graph                                    | 
 -----------------------------------------------------
 -----------------------------------------------------
| Time Sorting (Seconds)                              | 
 -----------------------------------------------------
| 6.080202                                            | 
 -----------------------------------------------------
 -----------------------------------------------------
| Map vertices to Edges                               | 
 -----------------------------------------------------
 -----------------------------------------------------
| Time Mapping (Seconds)                              | 
 -----------------------------------------------------
| 0.558988                                            | 
 -----------------------------------------------------
 *****************************************************
 -----------------------------------------------------
| BFS Algorithm (PUSH/PULL)                           | 
 -----------------------------------------------------
| PULL                                                | 
 -----------------------------------------------------
| ROOT/SOURCE                                         | 
 -----------------------------------------------------
| 3009230                                             | 
 -----------------------------------------------------
 -----------------------------------------------------
| Starting Breadth First Search (PULL)                | 
 -----------------------------------------------------
| 3009230                                             | 
 -----------------------------------------------------
| Iteration       | Nodes           | Time (Seconds)  | 
 -----------------------------------------------------
| BU 0            | 1               | 0.000025        | 
| BU 1            | 18092           | 0.201773        | 
| BU 2            | 516807          | 0.089039        | 
| BU 3            | 400713          | 0.051395        | 
| BU 4            | 26908           | 0.026861        | 
| BU 5            | 1021            | 0.022265        | 
| BU 6            | 35              | 0.022012        | 
| BU 7            | 1               | 0.022207        | 
| BU 8            | 0               | 0.021857        | 
 -----------------------------------------------------
| No OverHead     | 963578          | 0.457434        | 
 -----------------------------------------------------
 -----------------------------------------------------
| total           | 963578          | 0.457488        | 
 -----------------------------------------------------
 -----------------------------------------------------
| Time BFS (Seconds)                                  | 
 -----------------------------------------------------
| 0.458178                                            | 
 -----------------------------------------------------
 -----------------------------------------------------
| Free Graph (Seconds)                                | 
 -----------------------------------------------------
| 0.004832                                            | 
 -----------------------------------------------------
