
Usage: ./main -f <graph file> -r [root] -n [num threads] -p [0-push/1-pull]
	-f <graph file.txt>
	-h [help]
	-r [root/source]: BFS 
	-p [algorithm direction] [0-1]-push/pull
	-n [num threads] default:max number of threads the system has
 -----------------------------------------------------
| File Name                                           | 
 -----------------------------------------------------
| /tmp/rmat_benchmark/RMAT18                          | 
 -----------------------------------------------------
| Number of Threads                                   | 
 -----------------------------------------------------
| 8                                                   | 
 -----------------------------------------------------
 -----------------------------------------------------
| New graph calculating size                          | 
 -----------------------------------------------------
 -----------------------------------------------------
| New Graph Created                                   | 
 -----------------------------------------------------
| 0.874968                                            | 
 -----------------------------------------------------
 -----------------------------------------------------
| Populate Graph with edges                           | 
 -----------------------------------------------------
 -----------------------------------------------------
| Time load edges to graph (Seconds)                  | 
 -----------------------------------------------------
| 0.862243                                            | 
 -----------------------------------------------------
 -----------------------------------------------------
| Radix Sort Graph                                    | 
 -----------------------------------------------------
 -----------------------------------------------------
| Time Sorting (Seconds)                              | 
 -----------------------------------------------------
| 0.162829                                            | 
 -----------------------------------------------------
 -----------------------------------------------------
| Map vertices to Edges                               | 
 -----------------------------------------------------
 -----------------------------------------------------
| Time Mapping (Seconds)                              | 
 -----------------------------------------------------
| 0.028509                                            | 
 -----------------------------------------------------
 *****************************************************
 -----------------------------------------------------
| BFS Algorithm (PUSH/PULL)                           | 
 -----------------------------------------------------
| PUSH                                                | 
 -----------------------------------------------------
| ROOT/SOURCE                                         | 
 -----------------------------------------------------
| 64286                                               | 
 -----------------------------------------------------
 -----------------------------------------------------
| Starting Breadth First Search (PUSH)                | 
 -----------------------------------------------------
| 64286                                               | 
 -----------------------------------------------------
| Iteration       | Nodes           | Time (Seconds)  | 
 -----------------------------------------------------
| TD 0            | 1               | 0.000001        | 
| TD 1            | 3               | 0.002965        | 
| TD 2            | 1270            | 0.004374        | 
| TD 3            | 31407           | 0.007352        | 
| TD 4            | 36305           | 0.010955        | 
| TD 5            | 3828            | 0.006278        | 
| TD 6            | 153             | 0.005980        | 
| TD 7            | 1               | 0.002913        | 
| TD 8            | 0               | 0.004376        | 
 -----------------------------------------------------
| No OverHead     | 72968           | 0.045194        | 
 -----------------------------------------------------
 -----------------------------------------------------
| total           | 72968           | 0.045234        | 
 -----------------------------------------------------
 -----------------------------------------------------
| Time BFS (Seconds)                                  | 
 -----------------------------------------------------
| 0.045657                                            | 
 -----------------------------------------------------
 -----------------------------------------------------
| Free Graph (Seconds)                                | 
 -----------------------------------------------------
| 0.001091                                            | 
 -----------------------------------------------------
