
Usage: ./main -f <graph file> -r [root] -n [num threads] -p [0-push/1-pull]
	-f <graph file.txt>
	-h [help]
	-r [root/source]: BFS 
	-p [algorithm direction] [0-1]-push/pull
	-n [num threads] default:max number of threads the system has
 -----------------------------------------------------
| File Name                                           | 
 -----------------------------------------------------
| /tmp/rmat_benchmark/FACEBOOK                        | 
 -----------------------------------------------------
| Number of Threads                                   | 
 -----------------------------------------------------
| 1                                                   | 
 -----------------------------------------------------
 -----------------------------------------------------
| New graph calculating size                          | 
 -----------------------------------------------------
 -----------------------------------------------------
| New Graph Created                                   | 
 -----------------------------------------------------
| 0.017076                                            | 
 -----------------------------------------------------
 -----------------------------------------------------
| Populate Graph with edges                           | 
 -----------------------------------------------------
 -----------------------------------------------------
| Time load edges to graph (Seconds)                  | 
 -----------------------------------------------------
| 0.015550                                            | 
 -----------------------------------------------------
 -----------------------------------------------------
| Radix Sort Graph                                    | 
 -----------------------------------------------------
 -----------------------------------------------------
| Time Sorting (Seconds)                              | 
 -----------------------------------------------------
| 0.006766                                            | 
 -----------------------------------------------------
 -----------------------------------------------------
| Map vertices to Edges                               | 
 -----------------------------------------------------
 -----------------------------------------------------
| Time Mapping (Seconds)                              | 
 -----------------------------------------------------
| 0.000597                                            | 
 -----------------------------------------------------
 *****************************************************
 -----------------------------------------------------
| BFS Algorithm (PUSH/PULL)                           | 
 -----------------------------------------------------
| PULL                                                | 
 -----------------------------------------------------
| ROOT/SOURCE                                         | 
 -----------------------------------------------------
| 2688                                                | 
 -----------------------------------------------------
 -----------------------------------------------------
| Starting Breadth First Search (PULL)                | 
 -----------------------------------------------------
| 2688                                                | 
 -----------------------------------------------------
| Iteration       | Nodes           | Time (Seconds)  | 
 -----------------------------------------------------
| BU 0            | 1               | 0.000000        | 
| BU 1            | 9               | 0.000234        | 
| BU 2            | 76              | 0.000238        | 
| BU 3            | 118             | 0.000227        | 
| BU 4            | 123             | 0.000221        | 
| BU 5            | 118             | 0.000214        | 
| BU 6            | 23              | 0.000211        | 
| BU 7            | 7               | 0.000205        | 
| BU 8            | 9               | 0.000204        | 
| BU 9            | 1               | 0.000205        | 
| BU 10           | 0               | 0.000204        | 
 -----------------------------------------------------
| No OverHead     | 485             | 0.002163        | 
 -----------------------------------------------------
 -----------------------------------------------------
| total           | 485             | 0.002192        | 
 -----------------------------------------------------
 -----------------------------------------------------
| Time BFS (Seconds)                                  | 
 -----------------------------------------------------
| 0.002199                                            | 
 -----------------------------------------------------
 -----------------------------------------------------
| Free Graph (Seconds)                                | 
 -----------------------------------------------------
| 0.000082                                            | 
 -----------------------------------------------------
