linking main <- main.o edgelist.o sort.o vertex.o timer.o bfs.o graph.o
./bin/main -f /tmp/rmat_benchmark/RMAT22 -n 4 -p 0 -r 3009230 -h

Usage: ./main -f <graph file> -r [root] -n [num threads] -p [0-push/1-pull]
	-f <graph file.txt>
	-h [help]
	-r [root/source]: BFS 
	-p [algorithm direction] [0-1]-push/pull
	-n [num threads] default:max number of threads the system has
 -----------------------------------------------------
| File Name                                           | 
 -----------------------------------------------------
| /tmp/rmat_benchmark/RMAT22                          | 
 -----------------------------------------------------
| Number of Threads                                   | 
 -----------------------------------------------------
| 4                                                   | 
 -----------------------------------------------------
 -----------------------------------------------------
| New graph calculating size                          | 
 -----------------------------------------------------
 -----------------------------------------------------
| New Graph Created                                   | 
 -----------------------------------------------------
| 15.220223                                           | 
 -----------------------------------------------------
 -----------------------------------------------------
| Populate Graph with edges                           | 
 -----------------------------------------------------
 -----------------------------------------------------
| Time load edges to graph (Seconds)                  | 
 -----------------------------------------------------
| 14.803024                                           | 
 -----------------------------------------------------
 -----------------------------------------------------
| Radix Sort Graph                                    | 
 -----------------------------------------------------
 -----------------------------------------------------
| Time Sorting (Seconds)                              | 
 -----------------------------------------------------
| 1.950602                                            | 
 -----------------------------------------------------
 -----------------------------------------------------
| Map vertices to Edges                               | 
 -----------------------------------------------------
 -----------------------------------------------------
| Time Mapping (Seconds)                              | 
 -----------------------------------------------------
| 0.472633                                            | 
 -----------------------------------------------------
 *****************************************************
 -----------------------------------------------------
| BFS Algorithm (PUSH/PULL)                           | 
 -----------------------------------------------------
| PUSH                                                | 
 -----------------------------------------------------
| ROOT/SOURCE                                         | 
 -----------------------------------------------------
| 3009230                                             | 
 -----------------------------------------------------
 -----------------------------------------------------
| Starting Breadth First Search (PUSH)                | 
 -----------------------------------------------------
| 3009230                                             | 
 -----------------------------------------------------
| Iteration       | Nodes           | Time (Seconds)  | 
 -----------------------------------------------------
| TD 0            | 1               | 0.000001        | 
| TD 1            | 18092           | 0.004184        | 
| TD 2            | 516807          | 0.086730        | 
| TD 3            | 400713          | 0.173291        | 
| TD 4            | 26908           | 0.033334        | 
| TD 5            | 1021            | 0.001783        | 
| TD 6            | 35              | 0.000069        | 
| TD 7            | 1               | 0.000005        | 
| TD 8            | 0               | 0.000003        | 
 -----------------------------------------------------
| No OverHead     | 963578          | 0.299400        | 
 -----------------------------------------------------
 -----------------------------------------------------
| total           | 963578          | 0.299441        | 
 -----------------------------------------------------
 -----------------------------------------------------
| Time BFS (Seconds)                                  | 
 -----------------------------------------------------
| 0.302181                                            | 
 -----------------------------------------------------
 -----------------------------------------------------
| Free Graph (Seconds)                                | 
 -----------------------------------------------------
| 0.004169                                            | 
 -----------------------------------------------------
