
Usage: ./main -f <graph file> -r [root] -n [num threads] -p [0-push/1-pull]
	-f <graph file.txt>
	-h [help]
	-r [root/source]: BFS 
	-p [algorithm direction] [0-1]-push/pull
	-n [num threads] default:max number of threads the system has
 -----------------------------------------------------
| File Name                                           | 
 -----------------------------------------------------
| /tmp/rmat_benchmark/RMAT19                          | 
 -----------------------------------------------------
| Number of Threads                                   | 
 -----------------------------------------------------
| 16                                                  | 
 -----------------------------------------------------
 -----------------------------------------------------
| New graph calculating size                          | 
 -----------------------------------------------------
 -----------------------------------------------------
| New Graph Created                                   | 
 -----------------------------------------------------
| 1.701413                                            | 
 -----------------------------------------------------
 -----------------------------------------------------
| Populate Graph with edges                           | 
 -----------------------------------------------------
 -----------------------------------------------------
| Time load edges to graph (Seconds)                  | 
 -----------------------------------------------------
| 1.674778                                            | 
 -----------------------------------------------------
 -----------------------------------------------------
| Radix Sort Graph                                    | 
 -----------------------------------------------------
 -----------------------------------------------------
| Time Sorting (Seconds)                              | 
 -----------------------------------------------------
| 0.214295                                            | 
 -----------------------------------------------------
 -----------------------------------------------------
| Map vertices to Edges                               | 
 -----------------------------------------------------
 -----------------------------------------------------
| Time Mapping (Seconds)                              | 
 -----------------------------------------------------
| 0.057378                                            | 
 -----------------------------------------------------
 *****************************************************
 -----------------------------------------------------
| BFS Algorithm (PUSH/PULL)                           | 
 -----------------------------------------------------
| PULL                                                | 
 -----------------------------------------------------
| ROOT/SOURCE                                         | 
 -----------------------------------------------------
| 7356                                                | 
 -----------------------------------------------------
 -----------------------------------------------------
| Starting Breadth First Search (PULL)                | 
 -----------------------------------------------------
| 7356                                                | 
 -----------------------------------------------------
| Iteration       | Nodes           | Time (Seconds)  | 
 -----------------------------------------------------
| BU 0            | 1               | 0.000002        | 
| BU 1            | 179             | 0.007229        | 
| BU 2            | 13437           | 0.005725        | 
| BU 3            | 92960           | 0.014641        | 
| BU 4            | 30682           | 0.005046        | 
| BU 5            | 1859            | 0.001048        | 
| BU 6            | 82              | 0.000841        | 
| BU 7            | 2               | 0.001092        | 
| BU 8            | 0               | 0.000977        | 
 -----------------------------------------------------
| No OverHead     | 139202          | 0.036601        | 
 -----------------------------------------------------
 -----------------------------------------------------
| total           | 139202          | 0.036671        | 
 -----------------------------------------------------
 -----------------------------------------------------
| Time BFS (Seconds)                                  | 
 -----------------------------------------------------
| 0.036795                                            | 
 -----------------------------------------------------
 -----------------------------------------------------
| Free Graph (Seconds)                                | 
 -----------------------------------------------------
| 0.000963                                            | 
 -----------------------------------------------------
