
Usage: ./main -f <graph file> -r [root] -n [num threads] -p [0-push/1-pull]
	-f <graph file.txt>
	-h [help]
	-r [root/source]: BFS 
	-p [algorithm direction] [0-1]-push/pull
	-n [num threads] default:max number of threads the system has
 -----------------------------------------------------
| File Name                                           | 
 -----------------------------------------------------
| /tmp/rmat_benchmark/RMAT20                          | 
 -----------------------------------------------------
| Number of Threads                                   | 
 -----------------------------------------------------
| 1                                                   | 
 -----------------------------------------------------
 -----------------------------------------------------
| New graph calculating size                          | 
 -----------------------------------------------------
 -----------------------------------------------------
| New Graph Created                                   | 
 -----------------------------------------------------
| 3.414371                                            | 
 -----------------------------------------------------
 -----------------------------------------------------
| Populate Graph with edges                           | 
 -----------------------------------------------------
 -----------------------------------------------------
| Time load edges to graph (Seconds)                  | 
 -----------------------------------------------------
| 3.391876                                            | 
 -----------------------------------------------------
 -----------------------------------------------------
| Radix Sort Graph                                    | 
 -----------------------------------------------------
 -----------------------------------------------------
| Time Sorting (Seconds)                              | 
 -----------------------------------------------------
| 1.245337                                            | 
 -----------------------------------------------------
 -----------------------------------------------------
| Map vertices to Edges                               | 
 -----------------------------------------------------
 -----------------------------------------------------
| Time Mapping (Seconds)                              | 
 -----------------------------------------------------
| 0.114812                                            | 
 -----------------------------------------------------
 *****************************************************
 -----------------------------------------------------
| BFS Algorithm (PUSH/PULL)                           | 
 -----------------------------------------------------
| PULL                                                | 
 -----------------------------------------------------
| ROOT/SOURCE                                         | 
 -----------------------------------------------------
| 887243                                              | 
 -----------------------------------------------------
 -----------------------------------------------------
| Starting Breadth First Search (PULL)                | 
 -----------------------------------------------------
| 887243                                              | 
 -----------------------------------------------------
| Iteration       | Nodes           | Time (Seconds)  | 
 -----------------------------------------------------
| BU 0            | 1               | 0.000005        | 
| BU 1            | 1               | 0.054228        | 
| BU 2            | 92              | 0.054487        | 
| BU 3            | 14752           | 0.037001        | 
| BU 4            | 169250          | 0.022034        | 
| BU 5            | 76158           | 0.013010        | 
| BU 6            | 4781            | 0.006752        | 
| BU 7            | 183             | 0.006064        | 
| BU 8            | 5               | 0.006056        | 
| BU 9            | 0               | 0.006036        | 
 -----------------------------------------------------
| No OverHead     | 265223          | 0.205673        | 
 -----------------------------------------------------
 -----------------------------------------------------
| total           | 265223          | 0.205735        | 
 -----------------------------------------------------
 -----------------------------------------------------
| Time BFS (Seconds)                                  | 
 -----------------------------------------------------
| 0.205913                                            | 
 -----------------------------------------------------
 -----------------------------------------------------
| Free Graph (Seconds)                                | 
 -----------------------------------------------------
| 0.001257                                            | 
 -----------------------------------------------------
