
Usage: ./main -f <graph file> -r [root] -n [num threads] -p [0-push/1-pull]
	-f <graph file.txt>
	-h [help]
	-r [root/source]: BFS 
	-p [algorithm direction] [0-1]-push/pull
	-n [num threads] default:max number of threads the system has
 -----------------------------------------------------
| File Name                                           | 
 -----------------------------------------------------
| /tmp/rmat_benchmark/RMAT19                          | 
 -----------------------------------------------------
| Number of Threads                                   | 
 -----------------------------------------------------
| 32                                                  | 
 -----------------------------------------------------
 -----------------------------------------------------
| New graph calculating size                          | 
 -----------------------------------------------------
 -----------------------------------------------------
| New Graph Created                                   | 
 -----------------------------------------------------
| 1.738261                                            | 
 -----------------------------------------------------
 -----------------------------------------------------
| Populate Graph with edges                           | 
 -----------------------------------------------------
 -----------------------------------------------------
| Time load edges to graph (Seconds)                  | 
 -----------------------------------------------------
| 1.705960                                            | 
 -----------------------------------------------------
 -----------------------------------------------------
| Radix Sort Graph                                    | 
 -----------------------------------------------------
 -----------------------------------------------------
| Time Sorting (Seconds)                              | 
 -----------------------------------------------------
| 0.199243                                            | 
 -----------------------------------------------------
 -----------------------------------------------------
| Map vertices to Edges                               | 
 -----------------------------------------------------
 -----------------------------------------------------
| Time Mapping (Seconds)                              | 
 -----------------------------------------------------
| 0.056683                                            | 
 -----------------------------------------------------
 *****************************************************
 -----------------------------------------------------
| BFS Algorithm (PUSH/PULL)                           | 
 -----------------------------------------------------
| PUSH                                                | 
 -----------------------------------------------------
| ROOT/SOURCE                                         | 
 -----------------------------------------------------
| 7356                                                | 
 -----------------------------------------------------
 -----------------------------------------------------
| Starting Breadth First Search (PUSH)                | 
 -----------------------------------------------------
| 7356                                                | 
 -----------------------------------------------------
| Iteration       | Nodes           | Time (Seconds)  | 
 -----------------------------------------------------
| TD 0            | 1               | 0.000000        | 
| TD 1            | 179             | 0.000138        | 
| TD 2            | 13437           | 0.003213        | 
| TD 3            | 92960           | 0.026836        | 
| TD 4            | 30682           | 0.014401        | 
| TD 5            | 1859            | 0.001636        | 
| TD 6            | 82              | 0.000174        | 
| TD 7            | 2               | 0.000098        | 
| TD 8            | 0               | 0.000073        | 
 -----------------------------------------------------
| No OverHead     | 139202          | 0.046569        | 
 -----------------------------------------------------
 -----------------------------------------------------
| total           | 139202          | 0.046609        | 
 -----------------------------------------------------
 -----------------------------------------------------
| Time BFS (Seconds)                                  | 
 -----------------------------------------------------
| 0.048820                                            | 
 -----------------------------------------------------
 -----------------------------------------------------
| Free Graph (Seconds)                                | 
 -----------------------------------------------------
| 0.001001                                            | 
 -----------------------------------------------------
