
Usage: ./main -f <graph file> -r [root] -n [num threads] -p [0-push/1-pull]
	-f <graph file.txt>
	-h [help]
	-r [root/source]: BFS 
	-p [algorithm direction] [0-1]-push/pull
	-n [num threads] default:max number of threads the system has
 -----------------------------------------------------
| File Name                                           | 
 -----------------------------------------------------
| /tmp/rmat_benchmark/RMAT21                          | 
 -----------------------------------------------------
| Number of Threads                                   | 
 -----------------------------------------------------
| 16                                                  | 
 -----------------------------------------------------
 -----------------------------------------------------
| New graph calculating size                          | 
 -----------------------------------------------------
 -----------------------------------------------------
| New Graph Created                                   | 
 -----------------------------------------------------
| 7.400294                                            | 
 -----------------------------------------------------
 -----------------------------------------------------
| Populate Graph with edges                           | 
 -----------------------------------------------------
 -----------------------------------------------------
| Time load edges to graph (Seconds)                  | 
 -----------------------------------------------------
| 7.341978                                            | 
 -----------------------------------------------------
 -----------------------------------------------------
| Radix Sort Graph                                    | 
 -----------------------------------------------------
 -----------------------------------------------------
| Time Sorting (Seconds)                              | 
 -----------------------------------------------------
| 0.822463                                            | 
 -----------------------------------------------------
 -----------------------------------------------------
| Map vertices to Edges                               | 
 -----------------------------------------------------
 -----------------------------------------------------
| Time Mapping (Seconds)                              | 
 -----------------------------------------------------
| 0.251380                                            | 
 -----------------------------------------------------
 *****************************************************
 -----------------------------------------------------
| BFS Algorithm (PUSH/PULL)                           | 
 -----------------------------------------------------
| PUSH                                                | 
 -----------------------------------------------------
| ROOT/SOURCE                                         | 
 -----------------------------------------------------
| 1965863                                             | 
 -----------------------------------------------------
 -----------------------------------------------------
| Starting Breadth First Search (PUSH)                | 
 -----------------------------------------------------
| 1965863                                             | 
 -----------------------------------------------------
| Iteration       | Nodes           | Time (Seconds)  | 
 -----------------------------------------------------
| TD 0            | 1               | 0.000000        | 
| TD 1            | 1309            | 0.000345        | 
| TD 2            | 116718          | 0.029278        | 
| TD 3            | 334488          | 0.117630        | 
| TD 4            | 50473           | 0.034696        | 
| TD 5            | 2348            | 0.002637        | 
| TD 6            | 87              | 0.000138        | 
| TD 7            | 3               | 0.000038        | 
| TD 8            | 0               | 0.000037        | 
 -----------------------------------------------------
| No OverHead     | 505427          | 0.184799        | 
 -----------------------------------------------------
 -----------------------------------------------------
| total           | 505427          | 0.184845        | 
 -----------------------------------------------------
 -----------------------------------------------------
| Time BFS (Seconds)                                  | 
 -----------------------------------------------------
| 0.189957                                            | 
 -----------------------------------------------------
 -----------------------------------------------------
| Free Graph (Seconds)                                | 
 -----------------------------------------------------
| 0.002241                                            | 
 -----------------------------------------------------
