
Usage: ./main -f <graph file> -r [root] -n [num threads] -p [0-push/1-pull]
	-f <graph file.txt>
	-h [help]
	-r [root/source]: BFS 
	-p [algorithm direction] [0-1]-push/pull
	-n [num threads] default:max number of threads the system has
 -----------------------------------------------------
| File Name                                           | 
 -----------------------------------------------------
| /tmp/rmat_benchmark/FACEBOOK                        | 
 -----------------------------------------------------
| Number of Threads                                   | 
 -----------------------------------------------------
| 32                                                  | 
 -----------------------------------------------------
 -----------------------------------------------------
| New graph calculating size                          | 
 -----------------------------------------------------
 -----------------------------------------------------
| New Graph Created                                   | 
 -----------------------------------------------------
| 0.016228                                            | 
 -----------------------------------------------------
 -----------------------------------------------------
| Populate Graph with edges                           | 
 -----------------------------------------------------
 -----------------------------------------------------
| Time load edges to graph (Seconds)                  | 
 -----------------------------------------------------
| 0.015061                                            | 
 -----------------------------------------------------
 -----------------------------------------------------
| Radix Sort Graph                                    | 
 -----------------------------------------------------
 -----------------------------------------------------
| Time Sorting (Seconds)                              | 
 -----------------------------------------------------
| 0.005547                                            | 
 -----------------------------------------------------
 -----------------------------------------------------
| Map vertices to Edges                               | 
 -----------------------------------------------------
 -----------------------------------------------------
| Time Mapping (Seconds)                              | 
 -----------------------------------------------------
| 0.000650                                            | 
 -----------------------------------------------------
 *****************************************************
 -----------------------------------------------------
| BFS Algorithm (PUSH/PULL)                           | 
 -----------------------------------------------------
| PULL                                                | 
 -----------------------------------------------------
| ROOT/SOURCE                                         | 
 -----------------------------------------------------
| 2688                                                | 
 -----------------------------------------------------
 -----------------------------------------------------
| Starting Breadth First Search (PULL)                | 
 -----------------------------------------------------
| 2688                                                | 
 -----------------------------------------------------
| Iteration       | Nodes           | Time (Seconds)  | 
 -----------------------------------------------------
| BU 0            | 1               | 0.000000        | 
| BU 1            | 9               | 0.000162        | 
| BU 2            | 76              | 0.000128        | 
| BU 3            | 118             | 0.000196        | 
| BU 4            | 123             | 0.000204        | 
| BU 5            | 118             | 0.000201        | 
| BU 6            | 23              | 0.000186        | 
| BU 7            | 7               | 0.000208        | 
| BU 8            | 9               | 0.000187        | 
| BU 9            | 1               | 0.000194        | 
| BU 10           | 0               | 0.000188        | 
 -----------------------------------------------------
| No OverHead     | 485             | 0.001854        | 
 -----------------------------------------------------
 -----------------------------------------------------
| total           | 485             | 0.001903        | 
 -----------------------------------------------------
 -----------------------------------------------------
| Time BFS (Seconds)                                  | 
 -----------------------------------------------------
| 0.001910                                            | 
 -----------------------------------------------------
 -----------------------------------------------------
| Free Graph (Seconds)                                | 
 -----------------------------------------------------
| 0.000104                                            | 
 -----------------------------------------------------
